Preliminary-result
…
1. Summary Statistics:

The data was grouped by Family, Genus, and Geographical Region to calculate key descriptive statistics:

Mean: To determine the average sugar concentration for each group.

Median: To assess the central tendency of sugar concentration values, reducing the influence of extreme values.

Range: To highlight the variability of sugar concentration within each group.

Standard Deviation (SD): To measure the spread or dispersion of sugar concentration values around the mean.

Interquartile Range (IQR): To capture the middle 50% of the data and assess variability while ignoring outliers.

# A tibble: 418 × 8
   Family    Genus Region mean_sugar median_sugar range_sugar sd_sugar iqr_sugar
   <chr>     <chr> <chr>       <dbl>        <dbl>       <dbl>    <dbl>     <dbl>
 1 Alstroem… Alst… austr…       40           40           0      NA         0   
 2 Alstroem… Alst… europe       40           40           0      NA         0   
 3 Alstroem… Alst… north…       40           40           0      NA         0   
 4 Alstroem… Alst… south…       40           40           0      NA         0   
 5 Amarylli… Alli… africa       59.8         58.4        15.2     6.57      6.27
 6 Amarylli… Alli… asia         59.8         58.4        15.2     6.57      6.27
 7 Amarylli… Alli… austr…       59.8         58.4        15.2     6.57      6.27
 8 Amarylli… Alli… europe       59.8         58.4        15.2     6.57      6.27
 9 Amarylli… Alli… north…       59.8         58.4        15.2     6.57      6.27
10 Amarylli… Alli… south…       59.8         58.4        15.2     6.57      6.27
# ℹ 408 more rows
…
